…
<!--   return(list( -->
<!--     year_df = x, -->
<!--     weekly_summary = weekly_summary -->
<!--   )) -->
<!-- } -->


<!-- # > generate_yearly_dfs() -->
<!-- # `summarise()` has grouped output by 'yr'. You can override using the `.groups` argument. -->
<!-- # $year_df -->
<!-- # # A tibble: 365 x 6 -->
<!-- #    datum         yr m         w     d day   -->
<!-- #    <date>     <dbl> <ord> <dbl> <int> <ord> -->
<!-- #  1 2022-01-01  2022 jan       1     1 lör   -->
<!-- #  2 2022-01-02  2022 jan       1     2 sön   -->
<!-- #  3 2022-01-03  2022 jan       1     3 mån   -->
<!-- #  4 2022-01-04  2022 jan       1     4 tis   -->
<!-- #  5 2022-01-05  2022 jan       1     5 ons   -->
<!-- #  6 2022-01-06  2022 jan       1     6 tor   -->
<!-- #  7 2022-01-07  2022 jan       1     7 fre   -->
<!-- #  8 2022-01-08  2022 jan       2     8 lör   -->
<!-- #  9 2022-01-09  2022 jan       2     9 sön   -->
<!-- # 10 2022-01-10  2022 jan       2    10 mån   -->
<!-- # # ... with 355 more rows -->
<!-- #  -->
<!-- # $weekly_summary -->
<!-- # # A tibble: 53 x 3 -->
<!-- # # Groups:   yr [1] -->
<!-- #       yr     w Period        -->
<!-- #    <dbl> <dbl> <chr>           -->
<!-- #  1  2022     1 1 jan - 7 jan   -->
<!-- #  2  2022     2 8 jan - 14 jan  -->
<!-- #  3  2022     3 15 jan - 21 jan -->
<!-- #  4  2022     4 22 jan - 28 jan -->
<!-- #  5  2022     5 29 jan - 4 feb  -->
<!-- #  6  2022     6 5 feb - 11 feb  -->
<!-- #  7  2022     7 12 feb - 18 feb -->
<!-- #  8  2022     8 19 feb - 25 feb -->
<!-- #  9  2022     9 26 feb - 4 mar  -->
<!-- # 10  2022    10 5 mar - 11 mar  -->
<!-- # # ... with 43 more rows -->
…
